Tidy tools for supporting fluent workflow in temporal data analysis
…
### Web traffic at [earo.me](http://earo.me)
]
.pull-right[
<img src="img/us-airlines.png", height = "320px">

### Airline traffic in the US
]

---

.pull-left[
### Web traffic

```
#> # A tibble: 1,096 x 2
#>   Date       Users
#>   <date>     <dbl>
#> 1 2016-03-17     0
#> 2 2016-03-18     0
#> 3 2016-03-19     0
#> 4 2016-03-20     0
#> 5 2016-03-21     0
#> 6 2016-03-22     0
#> # … with 1,090 more rows
```
…
class: middle

## Creating a tsibble

.pull-left[

```r
web_ts <- web %>% 
  as_tsibble(
    key = id(), index = Date
  )
```

```
*#> # A tsibble: 1,096 x 2 [1D]
#>   Date       Users
#>   <date>     <dbl>
#> 1 2016-03-17     0
#> 2 2016-03-18     0
#> 3 2016-03-19     0
#> 4 2016-03-20     0
#> 5 2016-03-21     0
#> 6 2016-03-22     0
#> # … with 1,090 more rows
```
…
---

.pull-left[
<img src="img/tsibble.png" height=80px>

```r
web_ts %>% select(Users)
```

```
#> Selecting index: "Date"
```

```
#> # A tsibble: 1,096 x 2 [1D]
#>   Users Date      
#>   <dbl> <date>    
#> 1     0 2016-03-17
#> 2     0 2016-03-18
#> 3     0 2016-03-19
#> 4     0 2016-03-20
#> 5     0 2016-03-21
#> 6     0 2016-03-22
#> # … with 1,090 more rows
```
]
.pull-right[
<img src="https://github.com/rstudio/hex-stickers/blob/master/PNG/tidyverse.png?raw=true", height = "80px">

```r
web %>% select(Users)
```

```
#> # A tibble: 1,096 x 1
#>   Users
#>   <dbl>
#> 1     0
#> 2     0
#> 3     0
#> 4     0
#> 5     0
#> 6     0
#> # … with 1,090 more rows
```
]

---

.pull-left[
<img src="img/tsibble.png" height=80px>

```r
web_ts %>% 
  summarise(Users = sum(Users))
```

```
#> # A tsibble: 1,096 x 2 [1D]
#>   Date       Users
#>   <date>     <dbl>
#> 1 2016-03-17     0
#> 2 2016-03-18     0
#> 3 2016-03-19     0
#> 4 2016-03-20     0
#> 5 2016-03-21     0
#> 6 2016-03-22     0
#> # … with 1,090 more rows
```
…
---

.top[<img src="img/us-airlines.png", height = "80px">]

```r
sel_delay <- flights_ts %>% 
  filter(origin %in% c("JFK", "KOA", "LAX")) %>% 
  group_by(origin) %>% 
  index_by(sched_dep_date = as_date(sched_dep_datetime)) %>% 
  summarise(pct_delay = sum(dep_delay > 15) / n())
```
.pull-left[

```
#> # A tsibble: 1,095 x 3 [1D]
#> # Key:       origin [3]
#>   origin sched_dep_date pct_delay
#>   <chr>  <date>             <dbl>
#> 1 JFK    2017-01-01         0.15 
#> 2 JFK    2017-01-02         0.281
#> 3 JFK    2017-01-03         0.309
#> 4 JFK    2017-01-04         0.15 
#> 5 JFK    2017-01-05         0.167
#> 6 JFK    2017-01-06         0.279
#> # … with 1,089 more rows
```
…
